{
  "project_info": {
    "project_number": "927221648550",
    "firebase_url": "https://firstapp-21145.firebaseio.com",
    "project_id": "firstapp-21145",
    "storage_bucket": "firstapp-21145.appspot.com"
  },
  "client": [
    {
      "client_info": {
        "mobilesdk_app_id": "1:927221648550:android:a3d1957ccd1bf0c8e77867",
        "android_client_info": {
          "package_name": "com.example.rmtsclub"
        }
      },
      "oauth_client": [
        {
          "client_id": "927221648550-77amh4runabm5h4184ne1ff1hv0l0ve2.apps.googleusercontent.com",
          "client_type": 3
        }
      ],
      "api_key": [
        {
          "current_key": "AIzaSyCFJXRTTJESiacVEQNfgea8TKOitT8IeN4"
        }
      ],
      "services": {
        "appinvite_service": {
          "other_platform_oauth_client": [
            {
              "client_id": "927221648550-77amh4runabm5h4184ne1ff1hv0l0ve2.apps.googleusercontent.com",
              "client_type": 3
            }
          ]
        }
      }
    }
  ],
  "configuration_version": "1"
}